{
  "type": "service_account",
  "project_id": "molten-muse-297617",
  "private_key_id": "a9067a21bc514560d6665fd16ed04918b7c116b1",
  "private_key": "-----BEGIN PRIVATE KEY-----\nMIIEvgIBADANBgkqhkiG9w0BAQEFAASCBKgwggSkAgEAAoIBAQC7IhhgA1SdamW5\nr+Op7D9Lk9YzULEDq4KVWnmJMLGU4709ih7Eqlo3gA6CysQXWgsO2XDrI79Amoi2\nVIb/TbLn6YKEpgEbh2t2GUkSSGlb0aX/RD/OGadX6YWvWq1BCiUEYO4tgJknsqET\nru4sFQv5bx4Zj/8l25uwgOLoQq61w9Az4f3fn2+Lt7O2vv6yIaS/OjNRakzF1GJ6\nNEGBx55VocQAFf3GgAnW47432DB5Uz4NV96FuV09ewh9kePOBB1zYEPSNrhFug/w\nu2tJfsZyFUolh0m60mLYHt6G8Fgz43c9x5qzIN9uX5lQ5IcfNFtZs00wwLceN8gG\nfmXiKtb3AgMBAAECggEATnNAObwbtHR+2eYBcOKQNGxxP4kD9JBpyZgo3Fk0EUGa\nO5rURElQUfUW4EEGDO4cNaj1nDYbvwcp6hoskAowRuYPZ/G6BCL064k1J3uA49PT\nndysTQhXLdVBzJ4chOguVZQXNa80Rb6upXRP994I65RoT3odEm9q6QdXWNxfpuYM\nadEAkLinuFmdx06hj8OxeihEoxUlE/MPiwV+LkFARBW1l5cr5vdjWZ6UUFjgIhp2\ngwov/CfJNoG4odZvbPjwM+hBQbdUNhZJdTnAvOks3e2bAyRarfaluVivO7h6Spc6\nCsb0g03e+F55Ur9uqdpdKCYMDeScbQCKTyEHHeTobQKBgQDwQQem7y1ZA3fg1T0z\nQkPZ99BkKlc+iiLN5q+cfU7iu+e4rN8ekByhBwztXwcHlOahslUaosniMWOD7kkR\nB7Ls56/174CPmOu2hocIW0ct1jHTKN5wiPIXysdrKOxKAOJiUcQY8Pb2ve8EW1VA\n+TevYNfpvNTJgLYgwvB1uB7WAwKBgQDHZc54TJ6HjAPkEqPnSLOalGkSAj0jPAXt\n4GmR7rS+U9R7TYE5Cx0zuCilDeX8LAoZFSdm+xgEx3oJnJgek0VvBcGKXzWp1DEu\nmYqZXiunImK1Ufzo9Ry3h3mAZiORYzkrJ2xvkCumF9k1eUSgNy/xRvrHLSgTaV1g\nZXQw4sxy/QKBgCJYmZhyzt/P0B5zPZmLWpnZhJAdQXWuV8Vpuic7/sAJLtpG1GrR\nHVaj5GQ21pFt5v6suN/i78uHVfuxX/6wRBL8GDqnb5CXwvLIDpvSOL3DxkGysQIT\ngdCG67VVF1qI/9QgblFGeXfStU3BJNHyDtTimltO5HieDutmEuwxUy8zAoGBAJXU\n/GcNO/qizbGuCBedW8iGSMXNhN9bFSGAhhOwiYSTPZFB1h5lKZZZhcExRmZNOXFL\nogYSHCRLOHrMfspK49vfOWWe0ZZB6osXuTwxtR+sCPwzFZZ/yQpn9Hb1STjQlH7G\n6waSERqHxSIXc+foUFA/g+XzGrArdo0e70ZkxjiJAoGBAO4eDmr5xjNQJsrCI2Y2\nFJ6smV5dCdncInfEJqGRsVCOSw+3KP44Gw3VEV8zqOgSGNh1si3u2C/6evW1iRAs\npHAArq4cBeWCzA2loV0cHuHiUQIEVppCMU5JorFfdHL2Ks1dOivWBVfF6tVkB826\nXpKulYdgjVuzlfOlkMeHveyq\n-----END PRIVATE KEY-----\n",
  "client_email": "text-to-speech@molten-muse-297617.iam.gserviceaccount.com",
  "client_id": "111180516898676873234",
  "auth_uri": "https://accounts.google.com/o/oauth2/auth",
  "token_uri": "https://oauth2.googleapis.com/token",
  "auth_provider_x509_cert_url": "https://www.googleapis.com/oauth2/v1/certs",
  "client_x509_cert_url": "https://www.googleapis.com/robot/v1/metadata/x509/text-to-speech%40molten-muse-297617.iam.gserviceaccount.com"
}
